-- Merging decision tree log ---
manifest
ADDED from /Users/rick/AndroidStudioProjects/MessageKills/app/src/main/AndroidManifest.xml:2:1-25:12
INJECTED from /Users/rick/AndroidStudioProjects/MessageKills/app/src/main/AndroidManifest.xml:2:1-25:12
INJECTED from /Users/rick/AndroidStudioProjects/MessageKills/app/src/main/AndroidManifest.xml:2:1-25:12
INJECTED from /Users/rick/AndroidStudioProjects/MessageKills/app/src/main/AndroidManifest.xml:2:1-25:12
MERGED from [com.android.support:appcompat-v7:28.0.0] /Users/rick/.gradle/caches/transforms-1/files-1.1/appcompat-v7-28.0.0.aar/79ef61166dc6b97fcdc695dff94ac053/AndroidManifest.xml:17:1-22:12
MERGED from [com.android.support.constraint:constraint-layout:1.1.3] /Users/rick/.gradle/caches/transforms-1/files-1.1/constraint-layout-1.1.3.aar/80bf17d354dd90149f739a650faea8e4/AndroidManifest.xml:2:1-11:12
MERGED from [com.android.support:support-fragment:28.0.0] /Users/rick/.gradle/caches/transforms-1/files-1.1/support-fragment-28.0.0.aar/e5bd73deacddf5796957bd5ce7283574/AndroidManifest.xml:17:1-22:12
MERGED from [com.android.support:animated-vector-drawable:28.0.0] /Users/rick/.gradle/caches/transforms-1/files-1.1/animated-vector-drawable-28.0.0.aar/4fb642ac4819789c6c1fbae100cf2d9e/AndroidManifest.xml:17:1-22:12
MERGED from [com.android.support:support-core-ui:28.0.0] /Users/rick/.gradle/caches/transforms-1/files-1.1/support-core-ui-28.0.0.aar/f052ffd49283fca36b57502977a67472/AndroidManifest.xml:17:1-22:12
MERGED from [com.android.support:support-core-utils:28.0.0] /Users/rick/.gradle/caches/transforms-1/files-1.1/support-core-utils-28.0.0.aar/559ab5f811ac34d9766a2b6caecba925/AndroidManifest.xml:17:1-22:12
MERGED from [com.android.support:support-vector-drawable:28.0.0] /Users/rick/.gradle/caches/transforms-1/files-1.1/support-vector-drawable-28.0.0.aar/52fc72699a0ce52bc4883b20119b9f97/AndroidManifest.xml:17:1-22:12
MERGED from [com.android.support:loader:28.0.0] /Users/rick/.gradle/caches/transforms-1/files-1.1/loader-28.0.0.aar/e77243ece2e2b32aa41c39e93822a172/AndroidManifest.xml:17:1-22:12
MERGED from [com.android.support:viewpager:28.0.0] /Users/rick/.gradle/caches/transforms-1/files-1.1/viewpager-28.0.0.aar/f91758de01c6e6173a8d574847958938/AndroidManifest.xml:17:1-22:12
MERGED from [com.android.support:coordinatorlayout:28.0.0] /Users/rick/.gradle/caches/transforms-1/files-1.1/coordinatorlayout-28.0.0.aar/9f97f37e8bda4119669ba4f9d0774574/AndroidManifest.xml:17:1-22:12
MERGED from [com.android.support:drawerlayout:28.0.0] /Users/rick/.gradle/caches/transforms-1/files-1.1/drawerlayout-28.0.0.aar/236416f6a5321170463e1d1e6fd18704/AndroidManifest.xml:17:1-22:12
MERGED from [com.android.support:slidingpanelayout:28.0.0] /Users/rick/.gradle/caches/transforms-1/files-1.1/slidingpanelayout-28.0.0.aar/5e841e288fd80b68eb9708f3e0d35886/AndroidManifest.xml:17:1-22:12
MERGED from [com.android.support:customview:28.0.0] /Users/rick/.gradle/caches/transforms-1/files-1.1/customview-28.0.0.aar/04edb9ee588bf7140b0875b15d15ca5d/AndroidManifest.xml:17:1-22:12
MERGED from [com.android.support:swiperefreshlayout:28.0.0] /Users/rick/.gradle/caches/transforms-1/files-1.1/swiperefreshlayout-28.0.0.aar/c1b47eb52e271fffe74769e65e0ce31f/AndroidManifest.xml:17:1-22:12
MERGED from [com.android.support:asynclayoutinflater:28.0.0] /Users/rick/.gradle/caches/transforms-1/files-1.1/asynclayoutinflater-28.0.0.aar/44321d4cd4f8d5a7761d91d406b71939/AndroidManifest.xml:17:1-22:12
MERGED from [com.android.support:support-compat:28.0.0] /Users/rick/.gradle/caches/transforms-1/files-1.1/support-compat-28.0.0.aar/3e1cf3b9a5c3d93677255b33d871b81f/AndroidManifest.xml:17:1-24:12
MERGED from [com.android.support:versionedparcelable:28.0.0] /Users/rick/.gradle/caches/transforms-1/files-1.1/versionedparcelable-28.0.0.aar/de158188c251eb283744c06ae52b3b55/AndroidManifest.xml:17:1-25:12
MERGED from [com.android.support:cursoradapter:28.0.0] /Users/rick/.gradle/caches/transforms-1/files-1.1/cursoradapter-28.0.0.aar/bb4739de52022e331b2edfd4c31384b9/AndroidManifest.xml:17:1-22:12
MERGED from [android.arch.lifecycle:runtime:1.1.1] /Users/rick/.gradle/caches/transforms-1/files-1.1/runtime-1.1.1.aar/cd9ec59f476a159dabbda1a44ee45275/AndroidManifest.xml:17:1-22:12
MERGED from [com.android.support:documentfile:28.0.0] /Users/rick/.gradle/caches/transforms-1/files-1.1/documentfile-28.0.0.aar/3d3382b5b2c75bcfb4c2bdd4d802bb2f/AndroidManifest.xml:17:1-22:12
MERGED from [com.android.support:localbroadcastmanager:28.0.0] /Users/rick/.gradle/caches/transforms-1/files-1.1/localbroadcastmanager-28.0.0.aar/2b915c8ede5dfb07ea346e4d2424e735/AndroidManifest.xml:17:1-22:12
MERGED from [com.android.support:print:28.0.0] /Users/rick/.gradle/caches/transforms-1/files-1.1/print-28.0.0.aar/f25339617bd3afaf842b87c80a9233c1/AndroidManifest.xml:17:1-22:12
MERGED from [android.arch.lifecycle:viewmodel:1.1.1] /Users/rick/.gradle/caches/transforms-1/files-1.1/viewmodel-1.1.1.aar/6f6c61b6076253e32bf338a14a09d4dd/AndroidManifest.xml:17:1-22:12
MERGED from [android.arch.lifecycle:livedata:1.1.1] /Users/rick/.gradle/caches/transforms-1/files-1.1/livedata-1.1.1.aar/d72211cdc8878663fdafa111cc6ab423/AndroidManifest.xml:17:1-22:12
MERGED from [android.arch.lifecycle:livedata-core:1.1.1] /Users/rick/.gradle/caches/transforms-1/files-1.1/livedata-core-1.1.1.aar/6a44bc67a2e2a62ebcbad088cc9aa63a/AndroidManifest.xml:17:1-22:12
MERGED from [android.arch.core:runtime:1.1.1] /Users/rick/.gradle/caches/transforms-1/files-1.1/runtime-1.1.1.aar/736eef9cf24f6d24a329bf319e1e0982/AndroidManifest.xml:17:1-22:12
MERGED from [com.android.support:interpolator:28.0.0] /Users/rick/.gradle/caches/transforms-1/files-1.1/interpolator-28.0.0.aar/916c9cfd216b7a182752179fbd700011/AndroidManifest.xml:17:1-22:12
INJECTED from /Users/rick/AndroidStudioProjects/MessageKills/app/src/main/AndroidManifest.xml:2:1-25:12
INJECTED from /Users/rick/AndroidStudioProjects/MessageKills/app/src/main/AndroidManifest.xml:2:1-25:12
INJECTED from /Users/rick/AndroidStudioProjects/MessageKills/app/src/main/AndroidManifest.xml:2:1-25:12
	package
		ADDED from /Users/rick/AndroidStudioProjects/MessageKills/app/src/main/AndroidManifest.xml:3:5-41
		INJECTED from /Users/rick/AndroidStudioProjects/MessageKills/app/src/main/AndroidManifest.xml
		INJECTED from /Users/rick/AndroidStudioProjects/MessageKills/app/src/main/AndroidManifest.xml
	android:versionName
		INJECTED from /Users/rick/AndroidStudioProjects/MessageKills/app/src/main/AndroidManifest.xml
		ADDED from /Users/rick/AndroidStudioProjects/MessageKills/app/src/main/AndroidManifest.xml:2:1-25:12
		INJECTED from /Users/rick/AndroidStudioProjects/MessageKills/app/src/main/AndroidManifest.xml
	android:versionCode
		INJECTED from /Users/rick/AndroidStudioProjects/MessageKills/app/src/main/AndroidManifest.xml
		ADDED from /Users/rick/AndroidStudioProjects/MessageKills/app/src/main/AndroidManifest.xml:2:1-25:12
		INJECTED from /Users/rick/AndroidStudioProjects/MessageKills/app/src/main/AndroidManifest.xml
	xmlns:android
		ADDED from /Users/rick/AndroidStudioProjects/MessageKills/app/src/main/AndroidManifest.xml:2:11-69
uses-sdk
ADDED from /Users/rick/AndroidStudioProjects/MessageKills/app/src/main/AndroidManifest.xml:4:5-44
INJECTED from /Users/rick/AndroidStudioProjects/MessageKills/app/src/main/AndroidManifest.xml:4:5-44
INJECTED from /Users/rick/AndroidStudioProjects/MessageKills/app/src/main/AndroidManifest.xml:4:5-44
MERGED from [com.android.support:appcompat-v7:28.0.0] /Users/rick/.gradle/caches/transforms-1/files-1.1/appcompat-v7-28.0.0.aar/79ef61166dc6b97fcdc695dff94ac053/AndroidManifest.xml:20:5-44
MERGED from [com.android.support:appcompat-v7:28.0.0] /Users/rick/.gradle/caches/transforms-1/files-1.1/appcompat-v7-28.0.0.aar/79ef61166dc6b97fcdc695dff94ac053/AndroidManifest.xml:20:5-44
MERGED from [com.android.support.constraint:constraint-layout:1.1.3] /Users/rick/.gradle/caches/transforms-1/files-1.1/constraint-layout-1.1.3.aar/80bf17d354dd90149f739a650faea8e4/AndroidManifest.xml:5:5-7:41
MERGED from [com.android.support.constraint:constraint-layout:1.1.3] /Users/rick/.gradle/caches/transforms-1/files-1.1/constraint-layout-1.1.3.aar/80bf17d354dd90149f739a650faea8e4/AndroidManifest.xml:5:5-7:41
MERGED from [com.android.support:support-fragment:28.0.0] /Users/rick/.gradle/caches/transforms-1/files-1.1/support-fragment-28.0.0.aar/e5bd73deacddf5796957bd5ce7283574/AndroidManifest.xml:20:5-44
MERGED from [com.android.support:support-fragment:28.0.0] /Users/rick/.gradle/caches/transforms-1/files-1.1/support-fragment-28.0.0.aar/e5bd73deacddf5796957bd5ce7283574/AndroidManifest.xml:20:5-44
MERGED from [com.android.support:animated-vector-drawable:28.0.0] /Users/rick/.gradle/caches/transforms-1/files-1.1/animated-vector-drawable-28.0.0.aar/4fb642ac4819789c6c1fbae100cf2d9e/AndroidManifest.xml:20:5-44
MERGED from [com.android.support:animated-vector-drawable:28.0.0] /Users/rick/.gradle/caches/transforms-1/files-1.1/animated-vector-drawable-28.0.0.aar/4fb642ac4819789c6c1fbae100cf2d9e/AndroidManifest.xml:20:5-44
MERGED from [com.android.support:support-core-ui:28.0.0] /Users/rick/.gradle/caches/transforms-1/files-1.1/support-core-ui-28.0.0.aar/f052ffd49283fca36b57502977a67472/AndroidManifest.xml:20:5-44
MERGED from [com.android.support:support-core-ui:28.0.0] /Users/rick/.gradle/caches/transforms-1/files-1.1/support-core-ui-28.0.0.aar/f052ffd49283fca36b57502977a67472/AndroidManifest.xml:20:5-44
MERGED from [com.android.support:support-core-utils:28.0.0] /Users/rick/.gradle/caches/transforms-1/files-1.1/support-core-utils-28.0.0.aar/559ab5f811ac34d9766a2b6caecba925/AndroidManifest.xml:20:5-44
MERGED from [com.android.support:support-core-utils:28.0.0] /Users/rick/.gradle/caches/transforms-1/files-1.1/support-core-utils-28.0.0.aar/559ab5f811ac34d9766a2b6caecba925/AndroidManifest.xml:20:5-44
MERGED from [com.android.support:support-vector-drawable:28.0.0] /Users/rick/.gradle/caches/transforms-1/files-1.1/support-vector-drawable-28.0.0.aar/52fc72699a0ce52bc4883b20119b9f97/AndroidManifest.xml:20:5-44
MERGED from [com.android.support:support-vector-drawable:28.0.0] /Users/rick/.gradle/caches/transforms-1/files-1.1/support-vector-drawable-28.0.0.aar/52fc72699a0ce52bc4883b20119b9f97/AndroidManifest.xml:20:5-44
MERGED from [com.android.support:loader:28.0.0] /Users/rick/.gradle/caches/transforms-1/files-1.1/loader-28.0.0.aar/e77243ece2e2b32aa41c39e93822a172/AndroidManifest.xml:20:5-44
MERGED from [com.android.support:loader:28.0.0] /Users/rick/.gradle/caches/transforms-1/files-1.1/loader-28.0.0.aar/e77243ece2e2b32aa41c39e93822a172/AndroidManifest.xml:20:5-44
MERGED from [com.android.support:viewpager:28.0.0] /Users/rick/.gradle/caches/transforms-1/files-1.1/viewpager-28.0.0.aar/f91758de01c6e6173a8d574847958938/AndroidManifest.xml:20:5-44
MERGED from [com.android.support:viewpager:28.0.0] /Users/rick/.gradle/caches/transforms-1/files-1.1/viewpager-28.0.0.aar/f91758de01c6e6173a8d574847958938/AndroidManifest.xml:20:5-44
MERGED from [com.android.support:coordinatorlayout:28.0.0] /Users/rick/.gradle/caches/transforms-1/files-1.1/coordinatorlayout-28.0.0.aar/9f97f37e8bda4119669ba4f9d0774574/AndroidManifest.xml:20:5-44
MERGED from [com.android.support:coordinatorlayout:28.0.0] /Users/rick/.gradle/caches/transforms-1/files-1.1/coordinatorlayout-28.0.0.aar/9f97f37e8bda4119669ba4f9d0774574/AndroidManifest.xml:20:5-44
MERGED from [com.android.support:drawerlayout:28.0.0] /Users/rick/.gradle/caches/transforms-1/files-1.1/drawerlayout-28.0.0.aar/236416f6a5321170463e1d1e6fd18704/AndroidManifest.xml:20:5-44
MERGED from [com.android.support:drawerlayout:28.0.0] /Users/rick/.gradle/caches/transforms-1/files-1.1/drawerlayout-28.0.0.aar/236416f6a5321170463e1d1e6fd18704/AndroidManifest.xml:20:5-44
MERGED from [com.android.support:slidingpanelayout:28.0.0] /Users/rick/.gradle/caches/transforms-1/files-1.1/slidingpanelayout-28.0.0.aar/5e841e288fd80b68eb9708f3e0d35886/AndroidManifest.xml:20:5-44
MERGED from [com.android.support:slidingpanelayout:28.0.0] /Users/rick/.gradle/caches/transforms-1/files-1.1/slidingpanelayout-28.0.0.aar/5e841e288fd80b68eb9708f3e0d35886/AndroidManifest.xml:20:5-44
MERGED from [com.android.support:customview:28.0.0] /Users/rick/.gradle/caches/transforms-1/files-1.1/customview-28.0.0.aar/04edb9ee588bf7140b0875b15d15ca5d/AndroidManifest.xml:20:5-44
MERGED from [com.android.support:customview:28.0.0] /Users/rick/.gradle/caches/transforms-1/files-1.1/customview-28.0.0.aar/04edb9ee588bf7140b0875b15d15ca5d/AndroidManifest.xml:20:5-44
MERGED from [com.android.support:swiperefreshlayout:28.0.0] /Users/rick/.gradle/caches/transforms-1/files-1.1/swiperefreshlayout-28.0.0.aar/c1b47eb52e271fffe74769e65e0ce31f/AndroidManifest.xml:20:5-44
MERGED from [com.android.support:swiperefreshlayout:28.0.0] /Users/rick/.gradle/caches/transforms-1/files-1.1/swiperefreshlayout-28.0.0.aar/c1b47eb52e271fffe74769e65e0ce31f/AndroidManifest.xml:20:5-44
MERGED from [com.android.support:asynclayoutinflater:28.0.0] /Users/rick/.gradle/caches/transforms-1/files-1.1/asynclayoutinflater-28.0.0.aar/44321d4cd4f8d5a7761d91d406b71939/AndroidManifest.xml:20:5-44
MERGED from [com.android.support:asynclayoutinflater:28.0.0] /Users/rick/.gradle/caches/transforms-1/files-1.1/asynclayoutinflater-28.0.0.aar/44321d4cd4f8d5a7761d91d406b71939/AndroidManifest.xml:20:5-44
MERGED from [com.android.support:support-compat:28.0.0] /Users/rick/.gradle/caches/transforms-1/files-1.1/support-compat-28.0.0.aar/3e1cf3b9a5c3d93677255b33d871b81f/AndroidManifest.xml:20:5-44
MERGED from [com.android.support:support-compat:28.0.0] /Users/rick/.gradle/caches/transforms-1/files-1.1/support-compat-28.0.0.aar/3e1cf3b9a5c3d93677255b33d871b81f/AndroidManifest.xml:20:5-44
MERGED from [com.android.support:versionedparcelable:28.0.0] /Users/rick/.gradle/caches/transforms-1/files-1.1/versionedparcelable-28.0.0.aar/de158188c251eb283744c06ae52b3b55/AndroidManifest.xml:20:5-44
MERGED from [com.android.support:versionedparcelable:28.0.0] /Users/rick/.gradle/caches/transforms-1/files-1.1/versionedparcelable-28.0.0.aar/de158188c251eb283744c06ae52b3b55/AndroidManifest.xml:20:5-44
MERGED from [com.android.support:cursoradapter:28.0.0] /Users/rick/.gradle/caches/transforms-1/files-1.1/cursoradapter-28.0.0.aar/bb4739de52022e331b2edfd4c31384b9/AndroidManifest.xml:20:5-44
MERGED from [com.android.support:cursoradapter:28.0.0] /Users/rick/.gradle/caches/transforms-1/files-1.1/cursoradapter-28.0.0.aar/bb4739de52022e331b2edfd4c31384b9/AndroidManifest.xml:20:5-44
MERGED from [android.arch.lifecycle:runtime:1.1.1] /Users/rick/.gradle/caches/transforms-1/files-1.1/runtime-1.1.1.aar/cd9ec59f476a159dabbda1a44ee45275/AndroidManifest.xml:20:5-44
MERGED from [android.arch.lifecycle:runtime:1.1.1] /Users/rick/.gradle/caches/transforms-1/files-1.1/runtime-1.1.1.aar/cd9ec59f476a159dabbda1a44ee45275/AndroidManifest.xml:20:5-44
MERGED from [com.android.support:documentfile:28.0.0] /Users/rick/.gradle/caches/transforms-1/files-1.1/documentfile-28.0.0.aar/3d3382b5b2c75bcfb4c2bdd4d802bb2f/AndroidManifest.xml:20:5-44
MERGED from [com.android.support:documentfile:28.0.0] /Users/rick/.gradle/caches/transforms-1/files-1.1/documentfile-28.0.0.aar/3d3382b5b2c75bcfb4c2bdd4d802bb2f/AndroidManifest.xml:20:5-44
MERGED from [com.android.support:localbroadcastmanager:28.0.0] /Users/rick/.gradle/caches/transforms-1/files-1.1/localbroadcastmanager-28.0.0.aar/2b915c8ede5dfb07ea346e4d2424e735/AndroidManifest.xml:20:5-44
MERGED from [com.android.support:localbroadcastmanager:28.0.0] /Users/rick/.gradle/caches/transforms-1/files-1.1/localbroadcastmanager-28.0.0.aar/2b915c8ede5dfb07ea346e4d2424e735/AndroidManifest.xml:20:5-44
MERGED from [com.android.support:print:28.0.0] /Users/rick/.gradle/caches/transforms-1/files-1.1/print-28.0.0.aar/f25339617bd3afaf842b87c80a9233c1/AndroidManifest.xml:20:5-44
MERGED from [com.android.support:print:28.0.0] /Users/rick/.gradle/caches/transforms-1/files-1.1/print-28.0.0.aar/f25339617bd3afaf842b87c80a9233c1/AndroidManifest.xml:20:5-44
MERGED from [android.arch.lifecycle:viewmodel:1.1.1] /Users/rick/.gradle/caches/transforms-1/files-1.1/viewmodel-1.1.1.aar/6f6c61b6076253e32bf338a14a09d4dd/AndroidManifest.xml:20:5-44
MERGED from [android.arch.lifecycle:viewmodel:1.1.1] /Users/rick/.gradle/caches/transforms-1/files-1.1/viewmodel-1.1.1.aar/6f6c61b6076253e32bf338a14a09d4dd/AndroidManifest.xml:20:5-44
MERGED from [android.arch.lifecycle:livedata:1.1.1] /Users/rick/.gradle/caches/transforms-1/files-1.1/livedata-1.1.1.aar/d72211cdc8878663fdafa111cc6ab423/AndroidManifest.xml:20:5-44
MERGED from [android.arch.lifecycle:livedata:1.1.1] /Users/rick/.gradle/caches/transforms-1/files-1.1/livedata-1.1.1.aar/d72211cdc8878663fdafa111cc6ab423/AndroidManifest.xml:20:5-44
MERGED from [android.arch.lifecycle:livedata-core:1.1.1] /Users/rick/.gradle/caches/transforms-1/files-1.1/livedata-core-1.1.1.aar/6a44bc67a2e2a62ebcbad088cc9aa63a/AndroidManifest.xml:20:5-44
MERGED from [android.arch.lifecycle:livedata-core:1.1.1] /Users/rick/.gradle/caches/transforms-1/files-1.1/livedata-core-1.1.1.aar/6a44bc67a2e2a62ebcbad088cc9aa63a/AndroidManifest.xml:20:5-44
MERGED from [android.arch.core:runtime:1.1.1] /Users/rick/.gradle/caches/transforms-1/files-1.1/runtime-1.1.1.aar/736eef9cf24f6d24a329bf319e1e0982/AndroidManifest.xml:20:5-44
MERGED from [android.arch.core:runtime:1.1.1] /Users/rick/.gradle/caches/transforms-1/files-1.1/runtime-1.1.1.aar/736eef9cf24f6d24a329bf319e1e0982/AndroidManifest.xml:20:5-44
MERGED from [com.android.support:interpolator:28.0.0] /Users/rick/.gradle/caches/transforms-1/files-1.1/interpolator-28.0.0.aar/916c9cfd216b7a182752179fbd700011/AndroidManifest.xml:20:5-44
MERGED from [com.android.support:interpolator:28.0.0] /Users/rick/.gradle/caches/transforms-1/files-1.1/interpolator-28.0.0.aar/916c9cfd216b7a182752179fbd700011/AndroidManifest.xml:20:5-44
INJECTED from /Users/rick/AndroidStudioProjects/MessageKills/app/src/main/AndroidManifest.xml:4:5-44
INJECTED from /Users/rick/AndroidStudioProjects/MessageKills/app/src/main/AndroidManifest.xml:4:5-44
	android:targetSdkVersion
		INJECTED from /Users/rick/AndroidStudioProjects/MessageKills/app/src/main/AndroidManifest.xml
		ADDED from /Users/rick/AndroidStudioProjects/MessageKills/app/src/main/AndroidManifest.xml:4:5-44
		INJECTED from /Users/rick/AndroidStudioProjects/MessageKills/app/src/main/AndroidManifest.xml
	android:minSdkVersion
		ADDED from /Users/rick/AndroidStudioProjects/MessageKills/app/src/main/AndroidManifest.xml:4:15-41
		INJECTED from /Users/rick/AndroidStudioProjects/MessageKills/app/src/main/AndroidManifest.xml
		INJECTED from /Users/rick/AndroidStudioProjects/MessageKills/app/src/main/AndroidManifest.xml
uses-permission#android.permission.SEND_SMS
ADDED from /Users/rick/AndroidStudioProjects/MessageKills/app/src/main/AndroidManifest.xml:5:5-67
	android:name
		ADDED from /Users/rick/AndroidStudioProjects/MessageKills/app/src/main/AndroidManifest.xml:5:22-64
uses-permission#android.permission.READ_PHONE_STATE
ADDED from /Users/rick/AndroidStudioProjects/MessageKills/app/src/main/AndroidManifest.xml:7:5-74
	android:name
		ADDED from /Users/rick/AndroidStudioProjects/MessageKills/app/src/main/AndroidManifest.xml:7:22-72
application
ADDED from /Users/rick/AndroidStudioProjects/MessageKills/app/src/main/AndroidManifest.xml:9:5-23:19
MERGED from [com.android.support.constraint:constraint-layout:1.1.3] /Users/rick/.gradle/caches/transforms-1/files-1.1/constraint-layout-1.1.3.aar/80bf17d354dd90149f739a650faea8e4/AndroidManifest.xml:9:5-20
MERGED from [com.android.support.constraint:constraint-layout:1.1.3] /Users/rick/.gradle/caches/transforms-1/files-1.1/constraint-layout-1.1.3.aar/80bf17d354dd90149f739a650faea8e4/AndroidManifest.xml:9:5-20
MERGED from [com.android.support:support-compat:28.0.0] /Users/rick/.gradle/caches/transforms-1/files-1.1/support-compat-28.0.0.aar/3e1cf3b9a5c3d93677255b33d871b81f/AndroidManifest.xml:22:5-94
MERGED from [com.android.support:support-compat:28.0.0] /Users/rick/.gradle/caches/transforms-1/files-1.1/support-compat-28.0.0.aar/3e1cf3b9a5c3d93677255b33d871b81f/AndroidManifest.xml:22:5-94
MERGED from [com.android.support:versionedparcelable:28.0.0] /Users/rick/.gradle/caches/transforms-1/files-1.1/versionedparcelable-28.0.0.aar/de158188c251eb283744c06ae52b3b55/AndroidManifest.xml:22:5-23:19
MERGED from [com.android.support:versionedparcelable:28.0.0] /Users/rick/.gradle/caches/transforms-1/files-1.1/versionedparcelable-28.0.0.aar/de158188c251eb283744c06ae52b3b55/AndroidManifest.xml:22:5-23:19
	android:appComponentFactory
		ADDED from [com.android.support:support-compat:28.0.0] /Users/rick/.gradle/caches/transforms-1/files-1.1/support-compat-28.0.0.aar/3e1cf3b9a5c3d93677255b33d871b81f/AndroidManifest.xml:22:18-91
	android:supportsRtl
		ADDED from /Users/rick/AndroidStudioProjects/MessageKills/app/src/main/AndroidManifest.xml:14:9-35
	android:label
		ADDED from /Users/rick/AndroidStudioProjects/MessageKills/app/src/main/AndroidManifest.xml:12:9-41
	android:roundIcon
		ADDED from /Users/rick/AndroidStudioProjects/MessageKills/app/src/main/AndroidManifest.xml:13:9-54
	android:icon
		ADDED from /Users/rick/AndroidStudioProjects/MessageKills/app/src/main/AndroidManifest.xml:11:9-43
	android:allowBackup
		ADDED from /Users/rick/AndroidStudioProjects/MessageKills/app/src/main/AndroidManifest.xml:10:9-35
	android:theme
		ADDED from /Users/rick/AndroidStudioProjects/MessageKills/app/src/main/AndroidManifest.xml:15:9-40
activity#fr.informabox.messagekills.MainActivity
ADDED from /Users/rick/AndroidStudioProjects/MessageKills/app/src/main/AndroidManifest.xml:16:9-22:20
	android:name
		ADDED from /Users/rick/AndroidStudioProjects/MessageKills/app/src/main/AndroidManifest.xml:16:19-47
intent-filter#action:name:android.intent.action.MAIN+category:name:android.intent.category.LAUNCHER
ADDED from /Users/rick/AndroidStudioProjects/MessageKills/app/src/main/AndroidManifest.xml:17:13-21:29
action#android.intent.action.MAIN
ADDED from /Users/rick/AndroidStudioProjects/MessageKills/app/src/main/AndroidManifest.xml:18:17-69
	android:name
		ADDED from /Users/rick/AndroidStudioProjects/MessageKills/app/src/main/AndroidManifest.xml:18:25-66
category#android.intent.category.LAUNCHER
ADDED from /Users/rick/AndroidStudioProjects/MessageKills/app/src/main/AndroidManifest.xml:20:17-77
	android:name
		ADDED from /Users/rick/AndroidStudioProjects/MessageKills/app/src/main/AndroidManifest.xml:20:27-74
